[
    {
        "filter_name": "oplus_adfr_config"
    },
    {
        "version": 20211206
    },
    {
        "sub_version": "20211206_alice"
    },
    {
        "touch_idle": true,
        "hw_enable": true,
        "sw_enable": true,
        "adfr_enable": false,
        "timeout": 4000,
        "hw_brightness_limit": 200,
        "hw_gray": true,
        "hw_gray_threshold": 55,
        "hw_gray_percent": 70,

        "blacklist": [
            "com.android.settings",
            "com.android.mms",
            "com.oplus.engineermode",
            "com.antutu.ABenchMark",
            "com.antutu.benchmark.full",
            "com.ludashi.benchmark2",
            "com.ludashi.benchmark"
        ]
    },
    {
        "cvt": true
    },
    {
        "frtc": true
    }
]